{
    "/js/app.js": "/js/app.js?id=1ae1b964f57b40d91d28",
    "/theme/backend/assets/js/jquery-1.11.1.min.js": "/theme/backend/assets/js/jquery-1.11.1.min.js?id=8101d596b2b8fa35fe3a",
    "/theme/backend/assets/js/plugins.js": "/theme/backend/assets/js/plugins.js?id=4efb15f63686cbf7d580",
    "/theme/backend/assets/js/datatables.js": "/theme/backend/assets/js/datatables.js?id=94231d31e8aed3a48481",
    "/theme/backend/assets/js/pages.js": "/theme/backend/assets/js/pages.js?id=96602302c3f82178736c",
    "/theme/backend/assets/js/page-level.js": "/theme/backend/assets/js/page-level.js?id=e7e878bf319f3ce84372",
    "/theme/backend/assets/js/gallery-image-load.js": "/theme/backend/assets/js/gallery-image-load.js?id=0c668b8d7ccaadc3c168",
    "/theme/backend/assets/js/gallery.js": "/theme/backend/assets/js/gallery.js?id=1314192a8eff9dd250bc",
    "/theme/backend/assets/js/fancytree.js": "/theme/backend/assets/js/fancytree.js?id=80eb22b9741d0398f5d5",
    "/theme/backend/assets/js/thirt-party.js": "/theme/backend/assets/js/thirt-party.js?id=304afe7474adda9de0f3",
    "/theme/backend/assets/js/customs.js": "/theme/backend/assets/js/customs.js?id=74b4bb3d5ff3e2fa49ff",
    "/theme/backend/assets/js/multiselect.js": "/theme/backend/assets/js/multiselect.js?id=0d56d25e6062fab27ba6",
    "/theme/backend/assets/js/tree_category_script.js": "/theme/backend/assets/js/tree_category_script.js?id=18bdc77d1c9f5cb53eb9",
    "/theme/backend/assets/js/simple-gallery.js": "/theme/backend/assets/js/simple-gallery.js?id=bfda3f824edddfc28732",
    "/theme/backend/assets/js/fancybox-light-box.js": "/theme/backend/assets/js/fancybox-light-box.js?id=ab13d1db3f5233e0347a",
    "/theme/backend/assets/css/fancybox-light-box.css": "/theme/backend/assets/css/fancybox-light-box.css?id=6e8945480b7c60600e2d",
    "/theme/backend/assets/css/plugins.css": "/theme/backend/assets/css/plugins.css?id=3925f88e0939c4a9086e",
    "/theme/backend/assets/css/datatables.css": "/theme/backend/assets/css/datatables.css?id=83c8a1ec841d2711992d",
    "/theme/backend/assets/css/gallery.css": "/theme/backend/assets/css/gallery.css?id=e3403a0693a11cf77860",
    "/theme/backend/assets/css/corporate.css": "/theme/backend/assets/css/corporate.css?id=571ac1ebec4ccf7873c9",
    "/theme/backend/assets/css/pages.css": "/theme/backend/assets/css/pages.css?id=9453841294f39d1cf0e2",
    "/theme/backend/assets/css/customs.css": "/theme/backend/assets/css/customs.css?id=a98326415e428d8e433b",
    "/theme/backend/assets/css/fancytree/fancytree.css": "/theme/backend/assets/css/fancytree/fancytree.css?id=fdf5328690bea511170d",
    "/theme/backend/assets/css/lte-ie9.css": "/theme/backend/assets/css/lte-ie9.css?id=fe77562e371e4bb6b2f0",
    "/theme/backend/assets/css/lt-ie9.css": "/theme/backend/assets/css/lt-ie9.css?id=9a40e52aefe00e7f85eb"
}
